(5, X747, 287701)
(3, TEAC, 490897)
(3, KObF, 419866)
(2, your password is:, 221469)
(6, dNi8, 867024)
(7, 2LnM, 887805)
(5, t2xF, 746391)
(3, BRtp, 237916)
(7, 6K0a, 424452)
(2, your password is:, 787006)
(7, 5acV, 574415)
(4, KPTm, 833991)
(4, mLQr, 159731)
(5, Xxrl, 761195)
(7, ee6P, 507442)
(6, BZ0y, 978258)
(3, KF4W, 556549)
(3, 43Ym, 018496)
(2, your password is:, 664774)
(7, hj0Z, 455303)
(7, Hzbo, 895755)
(2, your password is:, 977529)
(1, Hello Kamilah, 253533)
(4, zXeB, 504400)
(1, Hello Phyliss, 812397)
(3, AEZn, 340038)
(4, VcWU, 754055)
(6, 4Ynd, 122269)
(3, qzyd, 933672)
(6, jjv2, 211617)
(5, r7Gm, 038825)
(4, LZ2t, 933572)
(5, ePYP, 618897)
(7, yYTc, 514392)
(2, your password is:, 520473)
(3, 3PgM, 654003)
(5, 3AEl, 905460)
(7, QnaA, 537190)
(1, Hello Rosemary, 258258)
(1, Hello Juliana, 893942)
(1, Hello Naida, 855732)
(6, TIjT, 256042)
(5, 9kr2, 667969)
(2, your password is:, 377816)
(3, 3C8R, 488372)
(4, W8Ng, 653110)
(1, Hello Oliva, 039121)
(3, p0CC, 689502)
(4, nlSd, 911653)
(4, paC8, 310968)
(7, naxV, 445001)
(1, Hello Kathleen, 575992)
(3, e3lZ, 935388)
(6, C9sA, 706899)
(6, 685A, 535451)
(6, sf2T, 891522)
(5, YhDE, 493335)
(6, ZSKZ, 806887)
(1, Hello Catarina, 961769)
(4, V5qV, 354176)
(4, BtOo, 382877)
(7, ddTv, 742639)
(4, 5M0o, 603488)
(6, qpeH, 151612)
(7, RxI3, 015196)
(2, your password is:, 492444)
(1, Hello Blythe, 883681)
(5, mC9H, 200982)
(2, your password is:, 911865)
(4, DoE5, 939654)
(7, SNka, 004895)
(5, qOjx, 297811)
(4, J8Os, 846122)
(1, Hello Jeannine, 297928)
(2, your password is:, 817746)
(1, Hello Joeann, 887309)
(4, neQo, 975491)
(4, L7Na, 471401)
(3, 6Syu, 257413)
(6, Vhqn, 164498)
(3, bKxq, 997927)
(6, lhVj, 394710)
(6, lPjR, 921466)
(7, hMra, 102447)
(2, your password is:, 939584)
(6, nlrZ, 636129)
(5, oS7B, 534435)
(6, p91O, 284707)
(5, 5rwg, 697915)
(7, JTV1, 539501)
(5, ZfJY, 960542)
(4, ob9b, 705107)
(6, a68Y, 000674)
(7, rgiI, 745553)
(6, rJDZ, 499697)
(1, Hello Micah, 450553)
(5, V3Qr, 215513)
(2, your password is:, 343075)
(5, AIPH, 890683)
(2, your password is:, 340480)
(2, your password is:, 136795)
(2, your password is:, 876050)
(3, seHy, 953927)
(3, nXvd, 030937)
(7, 2Aiu, 759434)
(1, Hello Gertude, 238344)
(6, mUwF, 163092)
(2, your password is:, 539268)
(2, your password is:, 040445)
(3, l1ij, 742293)
(7, uMed, 305115)
(2, your password is:, 322785)
(3, uHwv, 033737)
(2, your password is:, 951845)
(1, Hello Portia, 739464)
(2, your password is:, 556938)
(7, zFd7, 637232)
(1, Hello Lewis, 734727)
(5, 9U5A, 054431)
(1, Hello Merideth, 525564)
(7, PL5j, 128022)
(1, Hello Timmy, 327944)
(5, MpFP, 913468)
(3, GNDu, 764982)
(5, 8D7o, 009146)
(3, 3257, 788265)
(4, 4wHN, 990597)
(7, gDfT, 975815)
(5, ay4D, 616420)
(7, PUwh, 657843)
(2, your password is:, 129112)
(7, Aae1, 469668)
(2, your password is:, 136256)
(1, Hello Joella, 875982)
(3, PHmc, 317951)
(3, Nwfu, 665245)
(6, tpTP, 075490)
(4, 0osT, 219286)
(1, Hello Joaquin, 181988)
(4, zdDg, 276006)
(1, Hello Lasandra, 054518)
(1, Hello Rachael, 467155)
(4, inPa, 905334)
(6, EAaC, 005045)
(4, bU4I, 366950)
(6, 2lg8, 564957)
(6, nNYd, 552186)
(6, DbUa, 841790)
(7, q4aM, 920376)
(4, CteU, 673459)
(5, pNiw, 454630)
(4, okoG, 098276)
(1, Hello Elvia, 653737)
(7, E0PB, 559630)
(3, 29WL, 390775)
(5, nDu1, 518314)
(2, your password is:, 897693)
(2, your password is:, 376977)
(6, v10V, 129603)
(3, m0Z9, 948795)
(6, 9nnA, 761097)
(6, 6POI, 931555)
(7, 2VQW, 589403)
(6, Si3k, 660772)
(5, 3AwI, 777169)
(5, L8tH, 985453)
(1, Hello Tobie, 389471)
(6, SXcV, 166323)
(6, dPcZ, 074130)
(6, ayzT, 573583)
(1, Hello Roslyn, 183884)
(3, Vxhc, 472621)
(6, ukJq, 600505)
(5, NBFK, 063066)
(4, CklK, 694126)
(4, VeGb, 098578)
(3, MtX8, 210203)
(4, SmxG, 943575)
(4, mCZK, 124711)
(1, Hello Gabriel, 863541)
(1, Hello Gertha, 841279)
(5, ni1T, 984399)
(2, your password is:, 499801)
(3, wkyw, 619854)
(7, cKAb, 690381)
(1, Hello Rayford, 715480)
(3, bH9R, 210027)
(2, your password is:, 957427)
(6, Rblt, 329563)
(1, Hello Brunilda, 670237)
(4, hyTV, 752086)
(3, HL1l, 870382)
(2, your password is:, 442239)
(2, your password is:, 589576)
(1, Hello Shaniqua, 249417)
(2, your password is:, 492885)
(2, your password is:, 328442)
(5, wOWS, 416169)
(2, your password is:, 627325)
(5, TNV1, 310765)
(3, ztDQ, 191816)
(6, HUuP, 919132)
(7, T7Yy, 158148)
(1, Hello Mica, 728026)
(4, fHYP, 786143)
(6, Xd7a, 888231)
(1, Hello Lani, 868801)
(5, 1Ecw, 834894)
(5, VQCd, 352555)
(5, 8OjW, 779009)
(1, Hello Yuki, 115178)
(3, bKTi, 696073)
(3, ORYx, 602577)
(7, huzp, 848817)
(4, SF6i, 895912)
(3, HjVO, 367485)
(1, Hello Catherin, 818046)
(6, dZvs, 107633)
(5, OWL7, 400019)
(7, wqWA, 511396)
(7, aSfK, 051076)
(6, PB4u, 836431)
(4, T2ar, 079923)
(6, IYvj, 175958)
(5, 391L, 027790)
(4, NvgN, 703215)
(6, 8qx6, 742323)
(6, IKbd, 782910)
(7, WtCY, 028969)
(1, Hello Mike, 018614)
(2, your password is:, 919341)
(5, JWlB, 720787)
(7, LOxO, 644240)
(1, Hello Izetta, 214277)
(3, 45bq, 871043)
(1, Hello Carola, 951743)
(5, i81h, 047906)
(7, LdCb, 181787)
(7, D8TH, 160872)
(4, 7ne4, 742711)
(5, QNb2, 285192)
(5, u8E9, 040491)
(3, ZRWS, 854059)
(4, IT5L, 484013)
(6, yrZ0, 493100)
(7, ha2z, 548910)
(7, sPTx, 478522)
(2, your password is:, 795309)
(1, Hello Lise, 009767)
(5, 9dss, 187477)
(7, dwEJ, 837503)
(4, R7nT, 239884)
(3, Mnr8, 183716)
(3, VlIp, 752169)
(2, your password is:, 544404)
(2, your password is:, 771978)
(5, R0Mc, 315785)
(7, P6Hd, 637503)
(2, your password is:, 611994)
(2, your password is:, 762758)
(2, your password is:, 489881)
(1, Hello Lottie, 359101)
(6, kosG, 179762)
(1, Hello Annie, 206831)
(2, your password is:, 591670)
(6, jcoe, 931326)
(4, sU0c, 966602)
(3, 7Qh5, 589429)
(4, YrMP, 946324)
(2, your password is:, 474755)
(4, lqdk, 789123)
(3, rYGZ, 069646)
(2, your password is:, 290922)
(5, WlMY, 628858)
(4, oVWk, 554653)
(7, M5PF, 618052)
(1, Hello Milagro, 666824)
(7, Qj0y, 619568)
(2, your password is:, 060648)
(4, Lgvl, 962955)
(2, your password is:, 639905)
(6, Eull, 797687)
(2, your password is:, 039540)
(3, X3oc, 753248)
(7, 1gRo, 396001)
(1, Hello Lashaun, 842021)
(4, P5Kx, 744414)
(1, Hello Ferne, 159669)
(7, 8koN, 330861)
(7, CeOb, 119328)
(2, your password is:, 205736)
(3, WzfB, 492281)
(1, Hello Ashlyn, 128438)
(7, ZBRP, 113612)
(1, Hello Frank, 493825)
(7, 7Kb7, 188931)
(1, Hello Ruthanne, 811396)
(5, ZbJW, 704195)
(3, ylzU, 694921)
(5, ByL9, 337231)
(4, PL8s, 189115)
(6, TCWG, 276120)
(3, FKpf, 688715)
(5, MNCu, 266646)
(7, fhmH, 011814)
(5, 9iYv, 479049)
(7, YVzx, 519475)
(2, your password is:, 287397)
(3, IOdW, 791252)
(2, your password is:, 078089)
(5, 3xhb, 680777)
(4, kjA0, 526322)
(7, ThNa, 823147)
(3, KdNI, 919709)
(4, ng1V, 640442)
(6, EJjd, 846601)
(6, xbkx, 438605)
(1, Hello Elvis, 583161)
(3, tc2u, 172536)
(1, Hello Jesica, 235030)
(4, XCFp, 588055)
(4, dDVH, 629220)
(6, TMHO, 513706)
(6, 6Uzv, 116465)
(2, your password is:, 640931)
(7, Xu7R, 162798)
(5, c2OO, 015332)
(5, NzLB, 849634)
(1, Hello Sheridan, 241828)
(4, dvQu, 376477)
(2, your password is:, 712220)
(4, 7vhJ, 823072)
(3, MX7h, 218307)
(3, CrxZ, 845334)
(6, YrIm, 097776)
(2, your password is:, 307116)
(3, m7Hs, 009490)
(5, BDuD, 741441)
(4, FTnm, 946899)
(5, q0Kx, 579649)
(3, j83z, 727526)
(5, RXZd, 673410)
(3, a8xv, 345555)
(6, C4pP, 092619)
(2, your password is:, 690143)
(4, xATn, 275563)
(1, Hello Ernie, 084733)
(1, Hello Bernard, 551614)
(7, h4Re, 910875)
(5, ehKN, 660553)
